<svg width="24" height="24" xmlns="http://www.w3.org/2000/svg">
    <g fill="none" fill-rule="evenodd">
        <g fill="#0A8FC8" fill-rule="nonzero">
            <path d="M18 21.75H6A3.75 3.75 0 0 1 2.25 18V7.5A3.75 3.75 0 0 1 6 3.75h12a3.75 3.75 0 0 1 3.75 3.75V18A3.75 3.75 0 0 1 18 21.75zM6 5.25A2.25 2.25 0 0 0 3.75 7.5V18A2.25 2.25 0 0 0 6 20.25h12A2.25 2.25 0 0 0 20.25 18V7.5A2.25 2.25 0 0 0 18 5.25H6z"/>
            <path d="M21 9.75H3a.75.75 0 0 1 0-1.5h18a.75.75 0 1 1 0 1.5zM8.25 6.75A.75.75 0 0 1 7.5 6V3A.75.75 0 0 1 9 3v3a.75.75 0 0 1-.75.75zM15.75 6.75A.75.75 0 0 1 15 6V3a.75.75 0 1 1 1.5 0v3a.75.75 0 0 1-.75.75z"/>
        </g>
        <path d="M0 0h24v24H0z"/>
        <path stroke="#0A8FC8" stroke-width="1.4" stroke-linecap="round" stroke-linejoin="round" d="M6.5 12.5h11M6.5 16.5h11"/>
    </g>
</svg>
