<svg width="40" height="24" xmlns="http://www.w3.org/2000/svg">
    <g fill="none" fill-rule="evenodd">
        <rect width="33" height="19" rx="3" transform="translate(3.5 2.5)" stroke="#FFF" stroke-width="1.5"/>
        <g transform="translate(8.083 7.024)" fill="#FFF" fill-rule="nonzero">
            <circle stroke="#FFF" cx=".917" cy=".905" r="1"/>
            <circle stroke="#FFF" cx="5.5" cy=".905" r="1"/>
            <circle stroke="#FFF" cx="9.167" cy=".905" r="1"/>
            <circle stroke="#FFF" cx="13.75" cy=".905" r="1"/>
            <circle stroke="#FFF" cx="18.333" cy=".905" r="1"/>
            <circle stroke="#FFF" cx="22" cy=".905" r="1"/>
            <circle stroke="#FFF" cx="2.75" cy="4.524" r="1"/>
            <circle stroke="#FFF" cx="7.333" cy="4.524" r="1"/>
            <circle stroke="#FFF" cx="11.917" cy="4.524" r="1"/>
            <circle stroke="#FFF" cx="15.583" cy="4.524" r="1"/>
            <path d="M20.167 3.619a.91.91 0 0 0-.917.905.91.91 0 0 0 .917.905.91.91 0 0 0 .916-.905.907.907 0 0 0-.916-.905z" stroke="#FFF"/>
            <path d="M19.332 9.048H4.502c-.462 0-.835.404-.835.904s.373.905.834.905h14.831c.462 0 .835-.404.835-.905 0-.5-.373-.904-.835-.904z"/>
        </g>
    </g>
</svg>
